\relax 
\catcode`"\active
\ifx\hyper@anchor\@undefined
\global \let \oldcontentsline\contentsline
\gdef \contentsline#1#2#3#4{\oldcontentsline{#1}{#2}{#3}}
\global \let \oldnewlabel\newlabel
\gdef \newlabel#1#2{\newlabelxx{#1}#2}
\gdef \newlabelxx#1#2#3#4#5#6{\oldnewlabel{#1}{{#2}{#3}}}
\AtEndDocument{\let \contentsline\oldcontentsline
\let \newlabel\oldnewlabel}
\else
\global \let \hyper@last\relax 
\fi

\citation{url21}
\select@language{portuges}
\@writefile{toc}{\select@language{portuges}}
\@writefile{lof}{\select@language{portuges}}
\@writefile{lot}{\select@language{portuges}}
\@writefile{toc}{\contentsline {title}{Exploring WebRTC Tecnhology for Enhanced Real-time Services }{1}{chapter.1}}
\@writefile{toc}{\authcount {4}}
\@writefile{toc}{\contentsline {author}{Vasco Amaral \and Solange Rito Lima \and Telma Mota \and Paulo Chainho}{1}{chapter.1}}
\@writefile{toc}{\contentsline {section}{\numberline {1}Introduction}{1}{section.1.1}}
\citation{url2}
\citation{url2}
\citation{url2}
\citation{url2}
\citation{a1}
\citation{bk1}
\citation{url1}
\citation{a1}
\citation{bk1}
\citation{url1}
\@writefile{toc}{\contentsline {section}{\numberline {2}Concepts}{2}{section.1.2}}
\newlabel{sec:concepts}{{2}{2}{Concepts\relax }{section.1.2}{}}
\@writefile{toc}{\contentsline {subsection}{\numberline {2.1}WebRTC architecture}{2}{subsection.1.2.1}}
\@writefile{toc}{\contentsline {subsubsection}{\textit  {PeerConnection}}{2}{section*.2}}
\@writefile{toc}{\contentsline {subsubsection}{\textit  {MediaStreams}}{2}{section*.3}}
\citation{a1}
\citation{bk1}
\citation{url1}
\citation{url3}
\citation{url4}
\citation{url8}
\@writefile{lof}{\contentsline {figure}{\numberline {1}{\ignorespaces WebRTC Architecture \cite  {url2}.}}{3}{figure.1.1}}
\newlabel{fig:webrtcarch}{{1}{3}{WebRTC Architecture \cite {url2}}{figure.1.1}{}}
\@writefile{toc}{\contentsline {subsubsection}{\textit  {DataChannel}}{3}{section*.4}}
\@writefile{toc}{\contentsline {subsection}{\numberline {2.2}WebSockets}{3}{subsection.1.2.2}}
\newlabel{sec:websocket}{{2.2}{3}{WebSockets\relax }{subsection.1.2.2}{}}
\@writefile{toc}{\contentsline {subsection}{\numberline {2.3}Signalling}{3}{subsection.1.2.3}}
\citation{url10}
\citation{url10}
\citation{url9}
\citation{url14}
\citation{url13}
\@writefile{toc}{\contentsline {section}{\numberline {3}Analysed Technologies}{4}{section.1.3}}
\newlabel{sec:relatedwork}{{3}{4}{Analysed Technologies\relax }{section.1.3}{}}
\@writefile{toc}{\contentsline {subsection}{\numberline {3.1}\textit  {Node.js}}{4}{subsection.1.3.1}}
\@writefile{toc}{\contentsline {subsection}{\numberline {3.2}\textit  {Vertx.io}}{4}{subsection.1.3.2}}
\citation{url15}
\citation{url17}
\@writefile{toc}{\contentsline {subsection}{\numberline {3.3}\textit  {WebRTC-Experiment RCMultiConnection.js}}{5}{subsection.1.3.3}}
\@writefile{toc}{\contentsline {section}{\numberline {4}WebRTC Framework}{5}{section.1.4}}
\newlabel{sec:solution}{{4}{5}{WebRTC Framework\relax }{section.1.4}{}}
\@writefile{toc}{\contentsline {subsection}{\numberline {4.1}Architecture}{5}{subsection.1.4.1}}
\@writefile{lof}{\contentsline {figure}{\numberline {2}{\ignorespaces Framework Architecture.}}{6}{figure.1.2}}
\newlabel{fig:archartigo}{{2}{6}{Framework Architecture}{figure.1.2}{}}
\@writefile{toc}{\contentsline {subsubsection}{\textbf  {Web Server Module}}{6}{section*.5}}
\@writefile{toc}{\contentsline {subsubsection}{\textbf  {Mongo Data Base Module}}{6}{section*.6}}
\@writefile{toc}{\contentsline {subsubsection}{\textbf  {Presence Module}}{7}{section*.7}}
\@writefile{lof}{\contentsline {figure}{\numberline {3}{\ignorespaces Add a client to the contact list. }}{7}{figure.1.3}}
\newlabel{fig:addfriend}{{3}{7}{Add a client to the contact list. \relax }{figure.1.3}{}}
\@writefile{lof}{\contentsline {figure}{\numberline {4}{\ignorespaces Change state notification. }}{8}{figure.1.4}}
\newlabel{fig:publishstatepresence}{{4}{8}{Change state notification. \relax }{figure.1.4}{}}
\@writefile{toc}{\contentsline {subsubsection}{\textbf  {Regist User Module}}{8}{section*.8}}
\@writefile{lof}{\contentsline {figure}{\numberline {5}{\ignorespaces Regist User.}}{8}{figure.1.5}}
\newlabel{fig:registUser}{{5}{8}{Regist User}{figure.1.5}{}}
\@writefile{toc}{\contentsline {subsubsection}{\textbf  {Notification Module}}{8}{section*.9}}
\@writefile{toc}{\contentsline {subsubsection}{\textbf  {Calls History Module}}{9}{section*.10}}
\@writefile{lof}{\contentsline {figure}{\numberline {6}{\ignorespaces Regist Call.}}{9}{figure.1.6}}
\newlabel{fig:registcall}{{6}{9}{Regist Call}{figure.1.6}{}}
\@writefile{toc}{\contentsline {subsubsection}{\textbf  {Session Management Module}}{9}{section*.11}}
\@writefile{toc}{\contentsline {subsection}{\numberline {4.2}\textbf  {Client Application}}{9}{subsection.1.4.2}}
\@writefile{lof}{\contentsline {figure}{\numberline {7}{\ignorespaces Session Regist.}}{10}{figure.1.7}}
\newlabel{fig:sessionregister}{{7}{10}{Session Regist}{figure.1.7}{}}
\@writefile{toc}{\contentsline {section}{\numberline {5}Conclusions and Future Work}{10}{section.1.5}}
\newlabel{sec:conclusoes}{{5}{10}{Conclusions and Future Work\relax }{section.1.5}{}}
\bibcite{url21}{1}
\bibcite{url2}{2}
\bibcite{a1}{3}
\bibcite{bk1}{4}
\bibcite{url1}{5}
\bibcite{url3}{6}
\bibcite{url4}{7}
\bibcite{url8}{8}
\bibcite{url10}{9}
\bibcite{url9}{10}
\bibcite{url13}{11}
\bibcite{url14}{12}
\bibcite{url15}{13}
\bibcite{url17}{14}
