\relax 
\catcode`"\active
\providecommand\HyperFirstAtBeginDocument{\AtBeginDocument}
\HyperFirstAtBeginDocument{\ifx\hyper@anchor\@undefined
\global\let\oldcontentsline\contentsline
\gdef\contentsline#1#2#3#4{\oldcontentsline{#1}{#2}{#3}}
\global\let\oldnewlabel\newlabel
\gdef\newlabel#1#2{\newlabelxx{#1}#2}
\gdef\newlabelxx#1#2#3#4#5#6{\oldnewlabel{#1}{{#2}{#3}}}
\AtEndDocument{\ifx\hyper@anchor\@undefined
\let\contentsline\oldcontentsline
\let\newlabel\oldnewlabel
\fi}
\fi}
\global\let\hyper@last\relax 
\gdef\HyperFirstAtBeginDocument#1{#1}
\providecommand\HyField@AuxAddToFields[1]{}
\citation{url21}
\citation{url2}
\citation{url2}
\citation{url2}
\citation{a1}
\citation{a1}
\citation{bk1}
\citation{url1}
\citation{a1}
\citation{bk1}
\citation{url1}
\select@language{portuges}
\@writefile{toc}{\select@language{portuges}}
\@writefile{lof}{\select@language{portuges}}
\@writefile{lot}{\select@language{portuges}}
\@writefile{toc}{\contentsline {section}{\numberline {I}Introduction}{1}{section.1}}
\@writefile{toc}{\contentsline {section}{\numberline {II}Concepts}{1}{section.2}}
\newlabel{sec:concepts}{{II}{1}{Concepts\relax }{section.2}{}}
\@writefile{toc}{\contentsline {subsection}{\numberline {\unhbox \voidb@x \hbox {II-A}}WebRTC Architecture}{1}{subsection.2.1}}
\@writefile{toc}{\contentsline {subsection}{\numberline {\unhbox \voidb@x \hbox {II-B}}WebRTC API}{1}{subsection.2.2}}
\@writefile{toc}{\contentsline {subsubsection}{\numberline {\unhbox \voidb@x \hbox {II-B}1}PeerConnection}{1}{subsubsection.2.2.1}}
\@writefile{toc}{\contentsline {subsubsection}{\numberline {\unhbox \voidb@x \hbox {II-B}2}MediaStreams}{1}{subsubsection.2.2.2}}
\citation{a1}
\citation{bk1}
\citation{url1}
\citation{url3}
\citation{url4}
\citation{url5}
\citation{url5}
\citation{url8}
\citation{url8}
\@writefile{lof}{\contentsline {figure}{\numberline {1}{\ignorespaces WebRTC Architecture \cite  {url2}.}}{2}{figure.1}}
\newlabel{fig:webrtcarch}{{1}{2}{WebRTC Architecture \cite {url2}}{figure.1}{}}
\@writefile{toc}{\contentsline {subsubsection}{\numberline {\unhbox \voidb@x \hbox {II-B}3}DataChannel}{2}{subsubsection.2.2.3}}
\@writefile{toc}{\contentsline {subsection}{\numberline {\unhbox \voidb@x \hbox {II-C}}WebSockets}{2}{subsection.2.3}}
\newlabel{sec:websocket}{{\unhbox \voidb@x \hbox {II-C}}{2}{WebSockets\relax }{subsection.2.3}{}}
\@writefile{lof}{\contentsline {figure}{\numberline {2}{\ignorespaces Compara\IeC {\c c}\IeC {\~a}o de lat\IeC {\^e}ncia entre \textit  {polling} e aplica\IeC {\c c}\IeC {\~o}es \textit  {Websockets} \cite  {url5}.}}{2}{figure.2}}
\newlabel{fig:websockets}{{2}{2}{Comparação de latência entre \textit {polling} e aplicações \textit {Websockets} \cite {url5}}{figure.2}{}}
\@writefile{toc}{\contentsline {subsection}{\numberline {\unhbox \voidb@x \hbox {II-D}}Signaling}{2}{subsection.2.4}}
\@writefile{toc}{\contentsline {section}{\numberline {III}WebRTC Solutions}{2}{section.3}}
\newlabel{sec:relatedwork}{{III}{2}{WebRTC Solutions\relax }{section.3}{}}
\citation{url10}
\citation{url10}
\citation{url9}
\citation{url9}
\citation{url14}
\citation{url13}
\citation{url11}
\citation{url15}
\@writefile{lof}{\contentsline {figure}{\numberline {3}{\ignorespaces Modelo \textit  {JSEP} \cite  {url8}.}}{3}{figure.3}}
\newlabel{fig:jingle}{{3}{3}{Modelo \textit {JSEP} \cite {url8}}{figure.3}{}}
\@writefile{toc}{\contentsline {subsection}{\numberline {\unhbox \voidb@x \hbox {III-A}}Node.js}{3}{subsection.3.1}}
\@writefile{toc}{\contentsline {subsection}{\numberline {\unhbox \voidb@x \hbox {III-B}}Vertx.io}{3}{subsection.3.2}}
\@writefile{lot}{\contentsline {table}{\numberline {I}{\ignorespaces Interface prefixs in different browsers \cite  {url11}.}}{3}{table.1}}
\newlabel{table:interfacesbrowsers}{{I}{3}{Interface prefixs in different browsers \cite {url11}}{table.1}{}}
\@writefile{toc}{\contentsline {subsection}{\numberline {\unhbox \voidb@x \hbox {III-C}}Adapter.js}{3}{subsection.3.3}}
\@writefile{toc}{\contentsline {subsection}{\numberline {\unhbox \voidb@x \hbox {III-D}}WebRTC Experiment}{3}{subsection.3.4}}
\citation{url17}
\citation{url17}
\citation{url18}
\citation{url16}
\citation{url19}
\citation{url20}
\citation{url20}
\citation{test1}
\citation{test2}
\citation{test1}
\citation{test2}
\@writefile{toc}{\contentsline {subsubsection}{\numberline {\unhbox \voidb@x \hbox {III-D}1}RTCMultiConnection.js}{4}{subsubsection.3.4.1}}
\@writefile{toc}{\contentsline {subsubsection}{\numberline {\unhbox \voidb@x \hbox {III-D}2}DataChannel}{4}{subsubsection.3.4.2}}
\@writefile{toc}{\contentsline {subsubsection}{\numberline {\unhbox \voidb@x \hbox {III-D}3}RecordRTC.js}{4}{subsubsection.3.4.3}}
\@writefile{toc}{\contentsline {subsubsection}{\numberline {\unhbox \voidb@x \hbox {III-D}4}RTCall.js}{4}{subsubsection.3.4.4}}
\@writefile{toc}{\contentsline {subsubsection}{\numberline {\unhbox \voidb@x \hbox {III-D}5}SimpleWebRTC}{4}{subsubsection.3.4.5}}
\@writefile{toc}{\contentsline {section}{\numberline {IV}Developed Framework}{4}{section.4}}
\newlabel{sec:solution}{{IV}{4}{Developed Framework\relax }{section.4}{}}
\@writefile{toc}{\contentsline {subsection}{\numberline {\unhbox \voidb@x \hbox {IV-A}}Technologies}{4}{subsection.4.1}}
\@writefile{toc}{\contentsline {subsection}{\numberline {\unhbox \voidb@x \hbox {IV-B}}Architecture}{4}{subsection.4.2}}
\@writefile{lof}{\contentsline {figure}{\numberline {4}{\ignorespaces Framework Architecture.}}{5}{figure.4}}
\newlabel{fig:archartigo}{{4}{5}{Framework Architecture}{figure.4}{}}
\@writefile{toc}{\contentsline {subsubsection}{\numberline {\unhbox \voidb@x \hbox {IV-B}1}Web Server Module}{5}{subsubsection.4.2.1}}
\@writefile{toc}{\contentsline {subsubsection}{\numberline {\unhbox \voidb@x \hbox {IV-B}2}Mongo Data Base Module}{5}{subsubsection.4.2.2}}
\@writefile{toc}{\contentsline {subsubsection}{\numberline {\unhbox \voidb@x \hbox {IV-B}3}Presence Module}{5}{subsubsection.4.2.3}}
\@writefile{lof}{\contentsline {figure}{\numberline {5}{\ignorespaces Notifica\IeC {\c c}\IeC {\~a}o de mudan\IeC {\c c}a de estado.}}{5}{figure.5}}
\newlabel{fig:publishstatepresence}{{5}{5}{Notificação de mudança de estado}{figure.5}{}}
\@writefile{toc}{\contentsline {subsubsection}{\numberline {\unhbox \voidb@x \hbox {IV-B}4}Notification Module}{5}{subsubsection.4.2.4}}
\bibcite{a1}{1}
\bibcite{url1}{2}
\bibcite{url2}{3}
\bibcite{url3}{4}
\bibcite{url4}{5}
\bibcite{url5}{6}
\bibcite{url6}{7}
\bibcite{url7}{8}
\bibcite{url8}{9}
\bibcite{url9}{10}
\bibcite{url10}{11}
\bibcite{url11}{12}
\bibcite{url12}{13}
\@writefile{toc}{\contentsline {subsubsection}{\numberline {\unhbox \voidb@x \hbox {IV-B}5}Calls History Module}{6}{subsubsection.4.2.5}}
\@writefile{toc}{\contentsline {subsubsection}{\numberline {\unhbox \voidb@x \hbox {IV-B}6}\textbf  {M\IeC {\'o}dulo Gestor de Chamadas}}{6}{subsubsection.4.2.6}}
\@writefile{toc}{\contentsline {subsubsection}{\numberline {\unhbox \voidb@x \hbox {IV-B}7}Session Management Module}{6}{subsubsection.4.2.7}}
\@writefile{toc}{\contentsline {subsection}{\numberline {\unhbox \voidb@x \hbox {IV-C}}Client Application}{6}{subsection.4.3}}
\@writefile{toc}{\contentsline {section}{\numberline {V}Conclusions and future work}{6}{section.5}}
\newlabel{sec:conclusoes}{{V}{6}{Conclusions and future work\relax }{section.5}{}}
\@writefile{toc}{\contentsline {section}{Refer\^encias}{6}{section*.1}}
\bibcite{url13}{14}
\bibcite{url14}{15}
\bibcite{url15}{16}
\bibcite{url16}{17}
\bibcite{url17}{18}
\bibcite{url18}{19}
\bibcite{url19}{20}
\bibcite{url20}{21}
\bibcite{url21}{22}
\bibcite{test1}{23}
\bibcite{test2}{24}
\bibcite{bk1}{25}
